Calculations for Lao PDR NFI cycle 4
…
Get the plot level carbon stock

plot_c1 <- treeplot_final |>
  group_by(treeplot_plot_no) |>
  summarise(
    treeplot_count = n(),
    plot_c1 = mean(treeplot_carbon, na.rm = T),
    plot_c1_sd = sd(treeplot_carbon, na.rm = T)
  ) |>
  left_join(tmp$plot_lc, by = c("treeplot_plot_no" = "plot_no"))

plot_c1

# A tibble: 338 × 8
   treeplot_plot_no treeplot_count plot_c1 plot_c1_sd plot_lc_class2
              <dbl>          <int>   <dbl>      <dbl>          <dbl>
 1               12              4   109.        33.7             12
 2               14              4   155.        47.9             12
 3               17              4   126.        81.9             12
 4               18              4   159.       142.              12
 5               21              4   124.        91.8             12
 6               22              4   191.        98.9             12
 7               23              4    38.6       24.6             13
 8               24              3   234.       143.              12
 9               25              4    78.1       12.3             13
10               27              4   138.        72.8             12
# ℹ 328 more rows
# ℹ 3 more variables: plot_coord_lat <dbl>, plot_coord_lon <dbl>,
#   plot_crew_lead <dbl>
…
